[gd_scene load_steps=7 format=2]

[ext_resource path="res://Shaders/whitening.material" type="Material" id=1]
[ext_resource path="res://Scripts/Asteroid.gd" type="Script" id=2]
[ext_resource path="res://Sprites/Asteroids/large_asteroid.png" type="Texture" id=3]
[ext_resource path="res://Scripts/Whitening.gd" type="Script" id=4]

[sub_resource type="Shader" id=1]

code = "shader_type canvas_item;

uniform float whitening;

void fragment() {
    vec4 texture_color = texture(TEXTURE, UV);
    COLOR = vec4(mix(texture_color.rgb, vec3(1,1,1), whitening), texture_color.a);
}"

[sub_resource type="ShaderMaterial" id=2]

resource_local_to_scene = true
render_priority = 0
shader = SubResource( 1 )
shader_param/whitening = null
_sections_unfolded = [ "Resource", "shader_param" ]

[node name="Asteroid" type="Area2D" index="0"]

material = ExtResource( 1 )
input_pickable = true
gravity_vec = Vector2( 0, 1 )
gravity = 98.0
linear_damp = 0.1
angular_damp = 1.0
audio_bus_override = false
audio_bus_name = "Master"
script = ExtResource( 2 )
_sections_unfolded = [ "Material" ]

[node name="Sprite" type="Sprite" parent="." index="0"]

material = SubResource( 2 )
texture = ExtResource( 3 )
script = ExtResource( 4 )
_sections_unfolded = [ "Animation", "Material", "Offset", "Region", "Transform", "Visibility", "Z Index" ]

[node name="CollisionPolygon2D" type="CollisionPolygon2D" parent="." index="1"]

visible = false
build_mode = 0
polygon = PoolVector2Array( 3.30935, -30.3156, 20.5072, -20.5333, 30.9206, -11.0666, 30.4473, -2.07317, 29.0273, 5.81576, 27.2917, 14.3358, 21.6117, 25.3803, 2.36269, 32.1648, -7.10405, 29.6403, -12.7841, 28.0626, -20.5152, 21.7514, -31.8753, 2.02907, -26.9842, -20.0599, -7.89294, -32.3667 )
disabled = true

[node name="CollisionPolygon2D2" type="CollisionPolygon2D" parent="." index="2"]

visible = false
build_mode = 0
polygon = PoolVector2Array( -14.9811, -15.8467, -18.3306, -9.14755, -15.5044, -3.07648, -5.35111, 15.6601, 6.26766, 18.6956, 18.2005, 8.12359, 10.3499, -10.5083, -8.59599, -18.6728 )
disabled = true


