[gd_scene load_steps=3 format=2]

[ext_resource path="res://Sprites/healthbar_frame.png" type="Texture" id=1]
[ext_resource path="res://Sprites/healthbar.png" type="Texture" id=2]

[node name="HealthBar" type="Node2D" index="0"]

[node name="Bar" type="TextureProgress" parent="." index="0"]

anchor_left = 0.0
anchor_top = 0.0
anchor_right = 0.0
anchor_bottom = 0.0
margin_right = 100.0
margin_bottom = 40.0
rect_pivot_offset = Vector2( 0, 0 )
rect_clip_content = false
mouse_filter = 1
mouse_default_cursor_shape = 0
size_flags_horizontal = 1
size_flags_vertical = 1
min_value = 0.0
max_value = 100.0
step = 1.0
page = 0.0
value = 0.0
exp_edit = false
rounded = false
texture_under = null
texture_over = ExtResource( 1 )
texture_progress = ExtResource( 2 )
radial_fill_degrees = 360.0
radial_center_offset = Vector2( 0, 0 )
nine_patch_stretch = false
_sections_unfolded = [ "Textures" ]


